%YAML 1.1
%TAG !u! tag:unity3d.com,2011:
--- !u!1001 &7241726534078310129
PrefabInstance:
  m_ObjectHideFlags: 0
  serializedVersion: 2
  m_Modification:
    m_TransformParent: {fileID: 0}
    m_Modifications:
    - target: {fileID: -927199367670048503, guid: fb584e2fe3ccbba4e9f38d57c973214a,
        type: 3}
      propertyPath: m_Name
      value: cenario_lava Variant
      objectReference: {fileID: 0}
    - target: {fileID: -5966488892976640452, guid: fb584e2fe3ccbba4e9f38d57c973214a,
        type: 3}
      propertyPath: m_Materials.Array.data[0]
      value: 
      objectReference: {fileID: 2100000, guid: e9c9369dbf6566448ab6a2ef0124db2e, type: 2}
    - target: {fileID: -4216859302048453862, guid: fb584e2fe3ccbba4e9f38d57c973214a,
        type: 3}
      propertyPath: m_LocalPosition.x
      value: 0
      objectReference: {fileID: 0}
    - target: {fileID: -4216859302048453862, guid: fb584e2fe3ccbba4e9f38d57c973214a,
        type: 3}
      propertyPath: m_LocalPosition.y
      value: 0
      objectReference: {fileID: 0}
    - target: {fileID: -4216859302048453862, guid: fb584e2fe3ccbba4e9f38d57c973214a,
        type: 3}
      propertyPath: m_LocalPosition.z
      value: 0
      objectReference: {fileID: 0}
    - target: {fileID: -4216859302048453862, guid: fb584e2fe3ccbba4e9f38d57c973214a,
        type: 3}
      propertyPath: m_LocalRotation.x
      value: 0
      objectReference: {fileID: 0}
    - target: {fileID: -4216859302048453862, guid: fb584e2fe3ccbba4e9f38d57c973214a,
        type: 3}
      propertyPath: m_LocalRotation.y
      value: 0
      objectReference: {fileID: 0}
    - target: {fileID: -4216859302048453862, guid: fb584e2fe3ccbba4e9f38d57c973214a,
        type: 3}
      propertyPath: m_LocalRotation.z
      value: 0
      objectReference: {fileID: 0}
    - target: {fileID: -4216859302048453862, guid: fb584e2fe3ccbba4e9f38d57c973214a,
        type: 3}
      propertyPath: m_LocalRotation.w
      value: 1
      objectReference: {fileID: 0}
    - target: {fileID: -4216859302048453862, guid: fb584e2fe3ccbba4e9f38d57c973214a,
        type: 3}
      propertyPath: m_RootOrder
      value: 0
      objectReference: {fileID: 0}
    - target: {fileID: -4216859302048453862, guid: fb584e2fe3ccbba4e9f38d57c973214a,
        type: 3}
      propertyPath: m_LocalEulerAnglesHint.x
      value: 0
      objectReference: {fileID: 0}
    - target: {fileID: -4216859302048453862, guid: fb584e2fe3ccbba4e9f38d57c973214a,
        type: 3}
      propertyPath: m_LocalEulerAnglesHint.y
      value: 0
      objectReference: {fileID: 0}
    - target: {fileID: -4216859302048453862, guid: fb584e2fe3ccbba4e9f38d57c973214a,
        type: 3}
      propertyPath: m_LocalEulerAnglesHint.z
      value: 0
      objectReference: {fileID: 0}
    - target: {fileID: 8414179024916123358, guid: fb584e2fe3ccbba4e9f38d57c973214a,
        type: 3}
      propertyPath: m_Materials.Array.data[0]
      value: 
      objectReference: {fileID: 2100000, guid: d53b27841a8e357488eda6417f42ef8d, type: 2}
    m_RemovedComponents: []
  m_SourcePrefab: {fileID: 100100000, guid: fb584e2fe3ccbba4e9f38d57c973214a, type: 3}
