%YAML 1.1
%TAG !u! tag:unity3d.com,2011:
--- !u!21 &2100000
Material:
  serializedVersion: 6
  m_ObjectHideFlags: 0
  m_CorrespondingSourceObject: {fileID: 0}
  m_PrefabInstance: {fileID: 0}
  m_PrefabAsset: {fileID: 0}
  m_Name: SeaHorse Material
  m_Shader: {fileID: 4800000, guid: 1978e9e9186131f4f8d3224d78c7ff3b, type: 3}
  m_ShaderKeywords: 
  m_LightmapFlags: 4
  m_EnableInstancingVariants: 0
  m_DoubleSidedGI: 0
  m_CustomRenderQueue: -1
  stringTagMap: {}
  disabledShaderPasses: []
  m_SavedProperties:
    serializedVersion: 3
    m_TexEnvs:
    - _MainTex:
        m_Texture: {fileID: 2800000, guid: 87250748f82fe2645a9363bc05a2005a, type: 3}
        m_Scale: {x: 1, y: 1}
        m_Offset: {x: 0, y: 0}
    - _ToonLut:
        m_Texture: {fileID: 2800000, guid: 643fd881ed94a184988e24719f727662, type: 3}
        m_Scale: {x: 1, y: 1}
        m_Offset: {x: 0, y: 0}
    m_Floats:
    - _RimPower: 0.58
    m_Colors:
    - _Color: {r: 1, g: 1, b: 1, a: 1}
    - _RimColor: {r: 0.625, g: 0.49080884, b: 0.28952208, a: 1}
